{
  "href": "https://api.spotify.com/v1/playlists/1JJB9ICuIoE6aD4jg9vgmV/tracks?offset=0&limit=100&additional_types=track%2Cepisode",
  "items": [
    {
      "added_at": "2022-12-14T15:56:13Z",
      "added_by": {
        "external_urls": {
          "spotify": "https://open.spotify.com/user/testuser"
        },
        "href": "https://api.spotify.com/v1/users/testuser",
        "id": "testuser",
        "type": "user",
        "uri": "spotify:user:testuser"
      },
      "is_local": false,
      "primary_color": null,
      "track": {
        "album": {
          "album_type": "album",
          "artists": [
            {
              "external_urls": {
                "spotify": "https://open.spotify.com/artist/6M6ULJ0HhZ7BArUaVS5mqQ"
              },
              "href": "https://api.spotify.com/v1/artists/6M6ULJ0HhZ7BArUaVS5mqQ",
              "id": "6M6ULJ0HhZ7BArUaVS5mqQ",
              "name": "Ghetto Brothers",
              "type": "artist",
              "uri": "spotify:artist:6M6ULJ0HhZ7BArUaVS5mqQ"
            }
          ],
          "available_markets": [
            "US",
            "UY",
            "UZ",
            "VC",
            "VE",
            "VN",
            "VU",
            "WS",
            "XK",
            "ZA",
            "ZM",
            "ZW"
          ],
          "external_urls": {
            "spotify": "https://open.spotify.com/album/2FyPhYU7wHYvtWCdRZXOWp"
          },
          "href": "https://api.spotify.com/v1/albums/2FyPhYU7wHYvtWCdRZXOWp",
          "id": "2FyPhYU7wHYvtWCdRZXOWp",
          "images": [
            {
              "height": 640,
              "url": "https://i.scdn.co/image/ab67616d0000b273d3c9bdf228ca6b5198bbe85e",
              "width": 640
            },
            {
              "height": 300,
              "url": "https://i.scdn.co/image/ab67616d00001e02d3c9bdf228ca6b5198bbe85e",
              "width": 300
            },
            {
              "height": 64,
              "url": "https://i.scdn.co/image/ab67616d00004851d3c9bdf228ca6b5198bbe85e",
              "width": 64
            }
          ],
          "name": "Power Fuerza",
          "release_date": "2014-12-31",
          "release_date_precision": "day",
          "total_tracks": 8,
          "type": "album",
          "uri": "spotify:album:2FyPhYU7wHYvtWCdRZXOWp"
        },
        "artists": [
          {
            "external_urls": {
              "spotify": "https://open.spotify.com/artist/6M6ULJ0HhZ7BArUaVS5mqQ"
            },
            "href": "https://api.spotify.com/v1/artists/6M6ULJ0HhZ7BArUaVS5mqQ",
            "id": "6M6ULJ0HhZ7BArUaVS5mqQ",
            "name": "Ghetto Brothers",
            "type": "artist",
            "uri": "spotify:artist:6M6ULJ0HhZ7BArUaVS5mqQ"
          }
        ],
        "available_markets": [
          "US",
          "UY",
          "UZ",
          "VC",
          "VE",
          "VN",
          "VU",
          "WS",
          "XK",
          "ZA",
          "ZM",
          "ZW"
        ],
        "disc_number": 1,
        "duration_ms": 207000,
        "episode": false,
        "explicit": false,
        "external_ids": {
          "isrc": "QM6P41449832"
        },
        "external_urls": {
          "spotify": "https://open.spotify.com/track/6GvZwXT7ZxWxM7PqG4gD6k"
        },
        "href": "https://api.spotify.com/v1/tracks/6GvZwXT7ZxWxM7PqG4gD6k",
        "id": "6GvZwXT7ZxWxM7PqG4gD6k",
        "is_local": false,
        "name": "There Is Something in My Heart",
        "popularity": 34,
        "preview_url": "https://p.scdn.co/mp3-preview/f7523b9b135a0e1b1ecda7fd50e3df47929214eb?cid=1b9a197c02e449e0b42aef69c2dc98ef",
        "track": true,
        "track_number": 2,
        "type": "track",
        "uri": "spotify:track:6GvZwXT7ZxWxM7PqG4gD6k"
      },
      "video_thumbnail": {
        "url": null
      }
    },
    {
      "added_at": "2022-12-14T15:56:13Z",
      "added_by": {
        "external_urls": {
          "spotify": "https://open.spotify.com/user/testuser"
        },
        "href": "https://api.spotify.com/v1/users/testuser",
        "id": "testuser",
        "type": "user",
        "uri": "spotify:user:testuser"
      },
      "is_local": false,
      "primary_color": null,
      "track": {
        "album": {
          "album_type": "album",
          "artists": [
            {
              "external_urls": {
                "spotify": "https://open.spotify.com/artist/4qnb4cn5aykCACoyuCirGg"
              },
              "href": "https://api.spotify.com/v1/artists/4qnb4cn5aykCACoyuCirGg",
              "id": "4qnb4cn5aykCACoyuCirGg",
              "name": "The Cyrkle",
              "type": "artist",
              "uri": "spotify:artist:4qnb4cn5aykCACoyuCirGg"
            }
          ],
          "available_markets": [
            "US",
            "UY",
            "UZ",
            "VC",
            "VE",
            "VN",
            "VU",
            "WS",
            "XK",
            "ZA",
            "ZM",
            "ZW"
          ],
          "external_urls": {
            "spotify": "https://open.spotify.com/album/4UTTI52aZrvCeozkd5QTYi"
          },
          "href": "https://api.spotify.com/v1/albums/4UTTI52aZrvCeozkd5QTYi",
          "id": "4UTTI52aZrvCeozkd5QTYi",
          "images": [
            {
              "height": 640,
              "url": "https://i.scdn.co/image/ab67616d0000b27317b2b4b561510f413ee22371",
              "width": 640
            },
            {
              "height": 300,
              "url": "https://i.scdn.co/image/ab67616d00001e0217b2b4b561510f413ee22371",
              "width": 300
            },
            {
              "height": 64,
              "url": "https://i.scdn.co/image/ab67616d0000485117b2b4b561510f413ee22371",
              "width": 64
            }
          ],
          "name": "Red Rubber Ball (A Collection)",
          "release_date": "1991-08-27",
          "release_date_precision": "day",
          "total_tracks": 18,
          "type": "album",
          "uri": "spotify:album:4UTTI52aZrvCeozkd5QTYi"
        },
        "artists": [
          {
            "external_urls": {
              "spotify": "https://open.spotify.com/artist/4qnb4cn5aykCACoyuCirGg"
            },
            "href": "https://api.spotify.com/v1/artists/4qnb4cn5aykCACoyuCirGg",
            "id": "4qnb4cn5aykCACoyuCirGg",
            "name": "The Cyrkle",
            "type": "artist",
            "uri": "spotify:artist:4qnb4cn5aykCACoyuCirGg"
          }
        ],
        "available_markets": [
          "US",
          "UY",
          "UZ",
          "VC",
          "VE",
          "VN",
          "VU",
          "WS",
          "XK",
          "ZA",
          "ZM",
          "ZW"
        ],
        "disc_number": 1,
        "duration_ms": 138133,
        "episode": false,
        "explicit": false,
        "external_ids": {
          "isrc": "USSM16601636"
        },
        "external_urls": {
          "spotify": "https://open.spotify.com/track/5dIcC2RTD2BOHTC1F0jrIN"
        },
        "href": "https://api.spotify.com/v1/tracks/5dIcC2RTD2BOHTC1F0jrIN",
        "id": "5dIcC2RTD2BOHTC1F0jrIN",
        "is_local": false,
        "name": "The Visit (She Was Here)",
        "popularity": 43,
        "preview_url": "https://p.scdn.co/mp3-preview/690ac1592ad4e05dc34d369e15f49c9a30b50cea?cid=1b9a197c02e449e0b42aef69c2dc98ef",
        "track": true,
        "track_number": 10,
        "type": "track",
        "uri": "spotify:track:5dIcC2RTD2BOHTC1F0jrIN"
      },
      "video_thumbnail": {
        "url": null
      }
    },
    {
      "added_at": "2022-12-14T15:56:13Z",
      "added_by": {
        "external_urls": {
          "spotify": "https://open.spotify.com/user/testuser"
        },
        "href": "https://api.spotify.com/v1/users/testuser",
        "id": "testuser",
        "type": "user",
        "uri": "spotify:user:testuser"
      },
      "is_local": false,
      "primary_color": null,
      "track": {
        "album": {
          "album_type": "album",
          "artists": [
            {
              "external_urls": {
                "spotify": "https://open.spotify.com/artist/02oFrWT7l0AKMEnJI6iTIB"
              },
              "href": "https://api.spotify.com/v1/artists/02oFrWT7l0AKMEnJI6iTIB",
              "id": "02oFrWT7l0AKMEnJI6iTIB",
              "name": "The Belmonts",
              "type": "artist",
              "uri": "spotify:artist:02oFrWT7l0AKMEnJI6iTIB"
            }
          ],
          "available_markets": [
            "US",
            "UY",
            "UZ",
            "VC",
            "VE",
            "VN",
            "VU",
            "WS",
            "XK",
            "ZA",
            "ZM",
            "ZW"
          ],
          "external_urls": {
            "spotify": "https://open.spotify.com/album/2fXj9VkckyYDoXrOWm6rL9"
          },
          "href": "https://api.spotify.com/v1/albums/2fXj9VkckyYDoXrOWm6rL9",
          "id": "2fXj9VkckyYDoXrOWm6rL9",
          "images": [
            {
              "height": 640,
              "url": "https://i.scdn.co/image/ab67616d0000b273daf8ddd79854c78e815e340b",
              "width": 640
            },
            {
              "height": 300,
              "url": "https://i.scdn.co/image/ab67616d00001e02daf8ddd79854c78e815e340b",
              "width": 300
            },
            {
              "height": 64,
              "url": "https://i.scdn.co/image/ab67616d00004851daf8ddd79854c78e815e340b",
              "width": 64
            }
          ],
          "name": "Cigars, Acappella, Candy",
          "release_date": "1972",
          "release_date_precision": "year",
          "total_tracks": 9,
          "type": "album",
          "uri": "spotify:album:2fXj9VkckyYDoXrOWm6rL9"
        },
        "artists": [
          {
            "external_urls": {
              "spotify": "https://open.spotify.com/artist/02oFrWT7l0AKMEnJI6iTIB"
            },
            "href": "https://api.spotify.com/v1/artists/02oFrWT7l0AKMEnJI6iTIB",
            "id": "02oFrWT7l0AKMEnJI6iTIB",
            "name": "The Belmonts",
            "type": "artist",
            "uri": "spotify:artist:02oFrWT7l0AKMEnJI6iTIB"
          }
        ],
        "available_markets": [
          "US",
          "UY",
          "UZ",
          "VC",
          "VE",
          "VN",
          "VU",
          "WS",
          "XK",
          "ZA",
          "ZM",
          "ZW"
        ],
        "disc_number": 1,
        "duration_ms": 273533,
        "episode": false,
        "explicit": false,
        "external_ids": {
          "isrc": "USEE10001248"
        },
        "external_urls": {
          "spotify": "https://open.spotify.com/track/03piomdTgklqFH2Ky4OSVP"
        },
        "href": "https://api.spotify.com/v1/tracks/03piomdTgklqFH2Ky4OSVP",
        "id": "03piomdTgklqFH2Ky4OSVP",
        "is_local": false,
        "name": "My Sweet Lord",
        "popularity": 37,
        "preview_url": "https://p.scdn.co/mp3-preview/2466a18c6659cac648d7da7c47bc05e956c1bee6?cid=1b9a197c02e449e0b42aef69c2dc98ef",
        "track": true,
        "track_number": 5,
        "type": "track",
        "uri": "spotify:track:03piomdTgklqFH2Ky4OSVP"
      },
      "video_thumbnail": {
        "url": null
      }
    },
    {
      "added_at": "2022-12-14T15:56:13Z",
      "added_by": {
        "external_urls": {
          "spotify": "https://open.spotify.com/user/testuser"
        },
        "href": "https://api.spotify.com/v1/users/testuser",
        "id": "testuser",
        "type": "user",
        "uri": "spotify:user:testuser"
      },
      "is_local": false,
      "primary_color": null,
      "track": {
        "album": {
          "album_type": "album",
          "artists": [
            {
              "external_urls": {
                "spotify": "https://open.spotify.com/artist/2sQPJFyaYBVSNB9NiEUnMM"
              },
              "href": "https://api.spotify.com/v1/artists/2sQPJFyaYBVSNB9NiEUnMM",
              "id": "2sQPJFyaYBVSNB9NiEUnMM",
              "name": "Fifty Foot Hose",
              "type": "artist",
              "uri": "spotify:artist:2sQPJFyaYBVSNB9NiEUnMM"
            }
          ],
          "available_markets": [
            "US",
            "UY",
            "UZ",
            "VC",
            "VE",
            "VN",
            "VU",
            "WS",
            "XK",
            "ZA",
            "ZM",
            "ZW"
          ],
          "external_urls": {
            "spotify": "https://open.spotify.com/album/7aDnFNJkraWwSxMNtPLcfz"
          },
          "href": "https://api.spotify.com/v1/albums/7aDnFNJkraWwSxMNtPLcfz",
          "id": "7aDnFNJkraWwSxMNtPLcfz",
          "images": [
            {
              "height": 640,
              "url": "https://i.scdn.co/image/ab67616d0000b273d72919fe4ca7bc4a4b7a8b80",
              "width": 640
            },
            {
              "height": 300,
              "url": "https://i.scdn.co/image/ab67616d00001e02d72919fe4ca7bc4a4b7a8b80",
              "width": 300
            },
            {
              "height": 64,
              "url": "https://i.scdn.co/image/ab67616d00004851d72919fe4ca7bc4a4b7a8b80",
              "width": 64
            }
          ],
          "name": "Cauldron",
          "release_date": "1968-01-01",
          "release_date_precision": "day",
          "total_tracks": 18,
          "type": "album",
          "uri": "spotify:album:7aDnFNJkraWwSxMNtPLcfz"
        },
        "artists": [
          {
            "external_urls": {
              "spotify": "https://open.spotify.com/artist/2sQPJFyaYBVSNB9NiEUnMM"
            },
            "href": "https://api.spotify.com/v1/artists/2sQPJFyaYBVSNB9NiEUnMM",
            "id": "2sQPJFyaYBVSNB9NiEUnMM",
            "name": "Fifty Foot Hose",
            "type": "artist",
            "uri": "spotify:artist:2sQPJFyaYBVSNB9NiEUnMM"
          }
        ],
        "available_markets": [
          "US",
          "UY",
          "UZ",
          "VC",
          "VE",
          "VN",
          "VU",
          "WS",
          "XK",
          "ZA",
          "ZM",
          "ZW"
        ],
        "disc_number": 1,
        "duration_ms": 307066,
        "episode": false,
        "explicit": false,
        "external_ids": {
          "isrc": "GB03A0916777"
        },
        "external_urls": {
          "spotify": "https://open.spotify.com/track/0CzdX021BAVQxG3aTlNBPC"
        },
        "href": "https://api.spotify.com/v1/tracks/0CzdX021BAVQxG3aTlNBPC",
        "id": "0CzdX021BAVQxG3aTlNBPC",
        "is_local": false,
        "name": "Rose",
        "popularity": 33,
        "preview_url": "https://p.scdn.co/mp3-preview/043c18880246ad51c4458fb672ca7639057dcdec?cid=1b9a197c02e449e0b42aef69c2dc98ef",
        "track": true,
        "track_number": 8,
        "type": "track",
        "uri": "spotify:track:0CzdX021BAVQxG3aTlNBPC"
      },
      "video_thumbnail": {
        "url": null
      }
    },
    {
      "added_at": "2022-12-14T15:56:13Z",
      "added_by": {
        "external_urls": {
          "spotify": "https://open.spotify.com/user/testuser"
        },
        "href": "https://api.spotify.com/v1/users/testuser",
        "id": "testuser",
        "type": "user",
        "uri": "spotify:user:testuser"
      },
      "is_local": false,
      "primary_color": null,
      "track": {
        "album": {
          "album_type": "album",
          "artists": [
            {
              "external_urls": {
                "spotify": "https://open.spotify.com/artist/4DP9zIr6Htbun1GgKqrUks"
              },
              "href": "https://api.spotify.com/v1/artists/4DP9zIr6Htbun1GgKqrUks",
              "id": "4DP9zIr6Htbun1GgKqrUks",
              "name": "The Music Machine",
              "type": "artist",
              "uri": "spotify:artist:4DP9zIr6Htbun1GgKqrUks"
            }
          ],
          "available_markets": [
            "US",
            "UY",
            "UZ",
            "VC",
            "VE",
            "VN",
            "VU",
            "WS",
            "XK",
            "ZA",
            "ZM",
            "ZW"
          ],
          "external_urls": {
            "spotify": "https://open.spotify.com/album/3aQX82b7bXL0oukoCT1wFl"
          },
          "href": "https://api.spotify.com/v1/albums/3aQX82b7bXL0oukoCT1wFl",
          "id": "3aQX82b7bXL0oukoCT1wFl",
          "images": [
            {
              "height": 640,
              "url": "https://i.scdn.co/image/ab67616d0000b27357e8768547af40ad9ba722a0",
              "width": 640
            },
            {
              "height": 300,
              "url": "https://i.scdn.co/image/ab67616d00001e0257e8768547af40ad9ba722a0",
              "width": 300
            },
            {
              "height": 64,
              "url": "https://i.scdn.co/image/ab67616d0000485157e8768547af40ad9ba722a0",
              "width": 64
            }
          ],
          "name": "(Turn On) The Music Machine",
          "release_date": "1966-01-01",
          "release_date_precision": "day",
          "total_tracks": 12,
          "type": "album",
          "uri": "spotify:album:3aQX82b7bXL0oukoCT1wFl"
        },
        "artists": [
          {
            "external_urls": {
              "spotify": "https://open.spotify.com/artist/4DP9zIr6Htbun1GgKqrUks"
            },
            "href": "https://api.spotify.com/v1/artists/4DP9zIr6Htbun1GgKqrUks",
            "id": "4DP9zIr6Htbun1GgKqrUks",
            "name": "The Music Machine",
            "type": "artist",
            "uri": "spotify:artist:4DP9zIr6Htbun1GgKqrUks"
          }
        ],
        "available_markets": [
          "US",
          "UY",
          "UZ",
          "VC",
          "VE",
          "VN",
          "VU",
          "WS",
          "XK",
          "ZA",
          "ZM",
          "ZW"
        ],
        "disc_number": 1,
        "duration_ms": 154146,
        "episode": false,
        "explicit": false,
        "external_ids": {
          "isrc": "QMFMK1318005"
        },
        "external_urls": {
          "spotify": "https://open.spotify.com/track/0egnZyUzcu5dOKhng2pEWS"
        },
        "href": "https://api.spotify.com/v1/tracks/0egnZyUzcu5dOKhng2pEWS",
        "id": "0egnZyUzcu5dOKhng2pEWS",
        "is_local": false,
        "name": "Some Other Drum",
        "popularity": 33,
        "preview_url": "https://p.scdn.co/mp3-preview/71ba65943b8ef5f623fd63e8e3c5d0a4e8e897aa?cid=1b9a197c02e449e0b42aef69c2dc98ef",
        "track": true,
        "track_number": 5,
        "type": "track",
        "uri": "spotify:track:0egnZyUzcu5dOKhng2pEWS"
      },
      "video_thumbnail": {
        "url": null
      }
    }
  ],
  "limit": 100,
  "next": "https://api.spotify.com/v1/playlists/0y8aCYE2OsnLzzxtqcDGf8/tracks?offset=100&limit=100&additional_types=track%2Cepisode",
  "offset": 0,
  "previous": null,
  "total": 7341
}
