{
  "href": "https://api.spotify.com/v1/playlists/1JJB9ICuIoE6aD4jg9vgmV/tracks?offset=0&limit=100&additional_types=track%2Cepisode",
  "items": [
    {
      "added_at": "2022-12-14T15:56:13Z",
      "added_by": {
        "external_urls": {
          "spotify": "https://open.spotify.com/user/testuser"
        },
        "href": "https://api.spotify.com/v1/users/testuser",
        "id": "testuser",
        "type": "user",
        "uri": "spotify:user:testuser"
      },
      "is_local": false,
      "primary_color": null,
      "track": {
        "album": {
          "album_type": "album",
          "artists": [
            {
              "external_urls": {
                "spotify": "https://open.spotify.com/artist/1lvclIZLUGZ52gMi7uDDkv"
              },
              "href": "https://api.spotify.com/v1/artists/1lvclIZLUGZ52gMi7uDDkv",
              "id": "1lvclIZLUGZ52gMi7uDDkv",
              "name": "The Blues Project",
              "type": "artist",
              "uri": "spotify:artist:1lvclIZLUGZ52gMi7uDDkv"
            }
          ],
          "available_markets": [
            "US",
            "UY",
            "UZ",
            "VC",
            "VE",
            "VN",
            "VU",
            "WS",
            "XK",
            "ZA",
            "ZM",
            "ZW"
          ],
          "external_urls": {
            "spotify": "https://open.spotify.com/album/6byvXuTutJCQ9cLIaEd5tx"
          },
          "href": "https://api.spotify.com/v1/albums/6byvXuTutJCQ9cLIaEd5tx",
          "id": "6byvXuTutJCQ9cLIaEd5tx",
          "images": [
            {
              "height": 640,
              "url": "https://i.scdn.co/image/ab67616d0000b273e3be080b3f037c9b7f2d3343",
              "width": 640
            },
            {
              "height": 300,
              "url": "https://i.scdn.co/image/ab67616d00001e02e3be080b3f037c9b7f2d3343",
              "width": 300
            },
            {
              "height": 64,
              "url": "https://i.scdn.co/image/ab67616d00004851e3be080b3f037c9b7f2d3343",
              "width": 64
            }
          ],
          "name": "Projections",
          "release_date": "1966",
          "release_date_precision": "year",
          "total_tracks": 9,
          "type": "album",
          "uri": "spotify:album:6byvXuTutJCQ9cLIaEd5tx"
        },
        "artists": [
          {
            "external_urls": {
              "spotify": "https://open.spotify.com/artist/1lvclIZLUGZ52gMi7uDDkv"
            },
            "href": "https://api.spotify.com/v1/artists/1lvclIZLUGZ52gMi7uDDkv",
            "id": "1lvclIZLUGZ52gMi7uDDkv",
            "name": "The Blues Project",
            "type": "artist",
            "uri": "spotify:artist:1lvclIZLUGZ52gMi7uDDkv"
          }
        ],
        "available_markets": [
          "US",
          "UY",
          "UZ",
          "VC",
          "VE",
          "VN",
          "VU",
          "WS",
          "XK",
          "ZA",
          "ZM",
          "ZW"
        ],
        "disc_number": 1,
        "duration_ms": 363133,
        "episode": false,
        "explicit": false,
        "external_ids": {
          "isrc": "USF096625790"
        },
        "external_urls": {
          "spotify": "https://open.spotify.com/track/5Hbd5ZazhinrRP6mS5XaR1"
        },
        "href": "https://api.spotify.com/v1/tracks/5Hbd5ZazhinrRP6mS5XaR1",
        "id": "5Hbd5ZazhinrRP6mS5XaR1",
        "is_local": false,
        "name": "Flute Thing",
        "popularity": 33,
        "preview_url": "https://p.scdn.co/mp3-preview/2b735d2598fa4a9b89ab5cc47c995cd185d2f8a8?cid=1b9a197c02e449e0b42aef69c2dc98ef",
        "track": true,
        "track_number": 7,
        "type": "track",
        "uri": "spotify:track:5Hbd5ZazhinrRP6mS5XaR1"
      },
      "video_thumbnail": {
        "url": null
      }
    },
    {
      "added_at": "2022-12-14T15:56:13Z",
      "added_by": {
        "external_urls": {
          "spotify": "https://open.spotify.com/user/testuser"
        },
        "href": "https://api.spotify.com/v1/users/testuser",
        "id": "testuser",
        "type": "user",
        "uri": "spotify:user:testuser"
      },
      "is_local": false,
      "primary_color": null,
      "track": {
        "album": {
          "album_type": "album",
          "artists": [
            {
              "external_urls": {
                "spotify": "https://open.spotify.com/artist/6M6ULJ0HhZ7BArUaVS5mqQ"
              },
              "href": "https://api.spotify.com/v1/artists/6M6ULJ0HhZ7BArUaVS5mqQ",
              "id": "6M6ULJ0HhZ7BArUaVS5mqQ",
              "name": "Ghetto Brothers",
              "type": "artist",
              "uri": "spotify:artist:6M6ULJ0HhZ7BArUaVS5mqQ"
            }
          ],
          "available_markets": [
            "US",
            "UY",
            "UZ",
            "VC",
            "VE",
            "VN",
            "VU",
            "WS",
            "XK",
            "ZA",
            "ZM",
            "ZW"
          ],
          "external_urls": {
            "spotify": "https://open.spotify.com/album/2FyPhYU7wHYvtWCdRZXOWp"
          },
          "href": "https://api.spotify.com/v1/albums/2FyPhYU7wHYvtWCdRZXOWp",
          "id": "2FyPhYU7wHYvtWCdRZXOWp",
          "images": [
            {
              "height": 640,
              "url": "https://i.scdn.co/image/ab67616d0000b273d3c9bdf228ca6b5198bbe85e",
              "width": 640
            },
            {
              "height": 300,
              "url": "https://i.scdn.co/image/ab67616d00001e02d3c9bdf228ca6b5198bbe85e",
              "width": 300
            },
            {
              "height": 64,
              "url": "https://i.scdn.co/image/ab67616d00004851d3c9bdf228ca6b5198bbe85e",
              "width": 64
            }
          ],
          "name": "Power Fuerza",
          "release_date": "2014-12-31",
          "release_date_precision": "day",
          "total_tracks": 8,
          "type": "album",
          "uri": "spotify:album:2FyPhYU7wHYvtWCdRZXOWp"
        },
        "artists": [
          {
            "external_urls": {
              "spotify": "https://open.spotify.com/artist/6M6ULJ0HhZ7BArUaVS5mqQ"
            },
            "href": "https://api.spotify.com/v1/artists/6M6ULJ0HhZ7BArUaVS5mqQ",
            "id": "6M6ULJ0HhZ7BArUaVS5mqQ",
            "name": "Ghetto Brothers",
            "type": "artist",
            "uri": "spotify:artist:6M6ULJ0HhZ7BArUaVS5mqQ"
          }
        ],
        "available_markets": [
          "US",
          "UY",
          "UZ",
          "VC",
          "VE",
          "VN",
          "VU",
          "WS",
          "XK",
          "ZA",
          "ZM",
          "ZW"
        ],
        "disc_number": 1,
        "duration_ms": 207000,
        "episode": false,
        "explicit": false,
        "external_ids": {
          "isrc": "QM6P41449832"
        },
        "external_urls": {
          "spotify": "https://open.spotify.com/track/6GvZwXT7ZxWxM7PqG4gD6k"
        },
        "href": "https://api.spotify.com/v1/tracks/6GvZwXT7ZxWxM7PqG4gD6k",
        "id": "6GvZwXT7ZxWxM7PqG4gD6k",
        "is_local": false,
        "name": "There Is Something in My Heart",
        "popularity": 34,
        "preview_url": "https://p.scdn.co/mp3-preview/f7523b9b135a0e1b1ecda7fd50e3df47929214eb?cid=1b9a197c02e449e0b42aef69c2dc98ef",
        "track": true,
        "track_number": 2,
        "type": "track",
        "uri": "spotify:track:6GvZwXT7ZxWxM7PqG4gD6k"
      },
      "video_thumbnail": {
        "url": null
      }
    },
    {
      "added_at": "2022-12-14T15:56:13Z",
      "added_by": {
        "external_urls": {
          "spotify": "https://open.spotify.com/user/testuser"
        },
        "href": "https://api.spotify.com/v1/users/testuser",
        "id": "testuser",
        "type": "user",
        "uri": "spotify:user:testuser"
      },
      "is_local": false,
      "primary_color": null,
      "track": {
        "album": {
          "album_type": "album",
          "artists": [
            {
              "external_urls": {
                "spotify": "https://open.spotify.com/artist/4qnb4cn5aykCACoyuCirGg"
              },
              "href": "https://api.spotify.com/v1/artists/4qnb4cn5aykCACoyuCirGg",
              "id": "4qnb4cn5aykCACoyuCirGg",
              "name": "The Cyrkle",
              "type": "artist",
              "uri": "spotify:artist:4qnb4cn5aykCACoyuCirGg"
            }
          ],
          "available_markets": [
            "US",
            "UY",
            "UZ",
            "VC",
            "VE",
            "VN",
            "VU",
            "WS",
            "XK",
            "ZA",
            "ZM",
            "ZW"
          ],
          "external_urls": {
            "spotify": "https://open.spotify.com/album/4UTTI52aZrvCeozkd5QTYi"
          },
          "href": "https://api.spotify.com/v1/albums/4UTTI52aZrvCeozkd5QTYi",
          "id": "4UTTI52aZrvCeozkd5QTYi",
          "images": [
            {
              "height": 640,
              "url": "https://i.scdn.co/image/ab67616d0000b27317b2b4b561510f413ee22371",
              "width": 640
            },
            {
              "height": 300,
              "url": "https://i.scdn.co/image/ab67616d00001e0217b2b4b561510f413ee22371",
              "width": 300
            },
            {
              "height": 64,
              "url": "https://i.scdn.co/image/ab67616d0000485117b2b4b561510f413ee22371",
              "width": 64
            }
          ],
          "name": "Red Rubber Ball (A Collection)",
          "release_date": "1991-08-27",
          "release_date_precision": "day",
          "total_tracks": 18,
          "type": "album",
          "uri": "spotify:album:4UTTI52aZrvCeozkd5QTYi"
        },
        "artists": [
          {
            "external_urls": {
              "spotify": "https://open.spotify.com/artist/4qnb4cn5aykCACoyuCirGg"
            },
            "href": "https://api.spotify.com/v1/artists/4qnb4cn5aykCACoyuCirGg",
            "id": "4qnb4cn5aykCACoyuCirGg",
            "name": "The Cyrkle",
            "type": "artist",
            "uri": "spotify:artist:4qnb4cn5aykCACoyuCirGg"
          }
        ],
        "available_markets": [
          "US",
          "UY",
          "UZ",
          "VC",
          "VE",
          "VN",
          "VU",
          "WS",
          "XK",
          "ZA",
          "ZM",
          "ZW"
        ],
        "disc_number": 1,
        "duration_ms": 138133,
        "episode": false,
        "explicit": false,
        "external_ids": {
          "isrc": "USSM16601636"
        },
        "external_urls": {
          "spotify": "https://open.spotify.com/track/5dIcC2RTD2BOHTC1F0jrIN"
        },
        "href": "https://api.spotify.com/v1/tracks/5dIcC2RTD2BOHTC1F0jrIN",
        "id": "5dIcC2RTD2BOHTC1F0jrIN",
        "is_local": false,
        "name": "The Visit (She Was Here)",
        "popularity": 43,
        "preview_url": "https://p.scdn.co/mp3-preview/690ac1592ad4e05dc34d369e15f49c9a30b50cea?cid=1b9a197c02e449e0b42aef69c2dc98ef",
        "track": true,
        "track_number": 10,
        "type": "track",
        "uri": "spotify:track:5dIcC2RTD2BOHTC1F0jrIN"
      },
      "video_thumbnail": {
        "url": null
      }
    }
  ],
  "limit": 100,
  "next": "https://api.spotify.com/v1/playlists/0y8aCYE2OsnLzzxtqcDGf8/tracks?offset=100&limit=100&additional_types=track%2Cepisode",
  "offset": 0,
  "previous": null,
  "total": 7341
}
